<svg width="24" height="24" viewBox="0 0 24 24" fill="none" xmlns="http://www.w3.org/2000/svg">
<path fill-rule="evenodd" clip-rule="evenodd" d="M12.53 20.5299C12.3894 20.6704 12.1988 20.7493 12 20.7493C11.8013 20.7493 11.6107 20.6704 11.47 20.5299L5.47003 14.5299C5.39634 14.4613 5.33724 14.3785 5.29625 14.2865C5.25526 14.1945 5.23322 14.0952 5.23144 13.9944C5.22966 13.8937 5.24819 13.7937 5.28591 13.7003C5.32363 13.6069 5.37977 13.5221 5.45099 13.4509C5.52221 13.3797 5.60704 13.3235 5.70043 13.2858C5.79382 13.2481 5.89385 13.2296 5.99455 13.2313C6.09525 13.2331 6.19457 13.2552 6.28657 13.2961C6.37857 13.3371 6.46137 13.3962 6.53003 13.4699L11.25 18.1899L11.25 3.99993C11.25 3.80102 11.329 3.61025 11.4697 3.4696C11.6104 3.32895 11.8011 3.24993 12 3.24993C12.1989 3.24993 12.3897 3.32895 12.5304 3.4696C12.671 3.61025 12.75 3.80102 12.75 3.99993L12.75 18.1899L17.47 13.4699C17.5387 13.3962 17.6215 13.3371 17.7135 13.2961C17.8055 13.2552 17.9048 13.2331 18.0055 13.2313C18.1062 13.2296 18.2062 13.2481 18.2996 13.2858C18.393 13.3235 18.4778 13.3797 18.5491 13.4509C18.6203 13.5221 18.6764 13.6069 18.7142 13.7003C18.7519 13.7937 18.7704 13.8937 18.7686 13.9944C18.7668 14.0952 18.7448 14.1945 18.7038 14.2865C18.6628 14.3785 18.6037 14.4613 18.53 14.5299L12.53 20.5299Z" fill="#32EB51"/>
</svg>
