<svg width="24" height="24" viewBox="0 0 24 24" fill="none" xmlns="http://www.w3.org/2000/svg">
<g id="arrow-up-right">
<path id="Icon" d="M7 17L17 7M17 7H7M17 7V17" stroke="#32EB51" stroke-width="2" stroke-linecap="round" stroke-linejoin="round"/>
</g>
</svg>
